(0.997171614046,0.985256370241)
(-31.5405613782,1.04865701862)
8 timeout(s) total
Cycle buckets
entire program                    642122352
Fuzz program                      610489847
macroqueries                      609806658
microquery computation             41928772
microquery waiting                383323405
microquery in-between               3105142
microquery fudge wait             180749765
Bucket #7                      577980779884883126
Bucket #8                      577980887259049141
Bucket #9                      577980951714507897
