(0.134869388523,0.257971015013)
(2.90053130136,-0.138554442211)
18 timeout(s) total
Cycle buckets
entire program                   1188359304
Fuzz program                     1150665260
macroqueries                     1149590535
microquery computation             86204702
microquery waiting                762653107
microquery in-between               5962643
microquery fudge wait             293511731
Bucket #7                      577980779885441904
Bucket #8                      577980887259440677
Bucket #9                      577980951720569436
