(0.0425708154001,0.0966720070406)
(0.353537329006,0.541965430293)
0 timeout(s) total
Cycle buckets
entire program                   1173250654
Fuzz program                     1143029887
macroqueries                     1141892775
microquery computation             88555742
microquery waiting                760703630
microquery in-between               6327442
microquery fudge wait             284984988
Bucket #7                      577980779885504525
Bucket #8                      577980887259503064
Bucket #9                      577980951713096159
